{
  "images" : [
    {
      "filename" : "digue_vacanciers-promenade-personnages-dessins-animes-front-mer-fond_151150-2494.jpg",
      "idiom" : "universal",
      "scale" : "1x"
    },
    {
      "idiom" : "universal",
      "scale" : "2x"
    },
    {
      "idiom" : "universal",
      "scale" : "3x"
    }
  ],
  "info" : {
    "author" : "xcode",
    "version" : 1
  }
}
