{
  "images" : [
    {
      "filename" : "paysage-zone-camping-design-plat-tentes-foret_23-2148651494.jpg - copie.pdf",
      "idiom" : "universal",
      "scale" : "1x"
    },
    {
      "idiom" : "universal",
      "scale" : "2x"
    },
    {
      "idiom" : "universal",
      "scale" : "3x"
    }
  ],
  "info" : {
    "author" : "xcode",
    "version" : 1
  }
}
